{
  "_embedded" : {
    "journalcounter" : [ {
      "month" : 7,
      "year" : 2017,
      "profile" : null,
      "printIssn" : "1573-3254",
      "onlineIssn" : "1573-3254",
      "doi" : "",
      "category" : "",
      "proprietary" : "",
      "abbreviation" : "1573-3254",
      "fullName" : "AIDS and Behavior",
      "publisher" : "Springer",
      "platform" : "SpringerLink",
      "type" : "Journal",
      "htmlRequests" : 3,
      "htmlRequestsMobile" : 3,
      "pdfRequests" : 4,
      "pdfRequestsMobile" : 4,
      "psRequests" : 4,
      "psRequestsMobile" : 4,
      "totalRequests" : 7,
      "_links" : {
        "self" : {
          "href" : "http://localhost:8082/api/data/journalcounter/20241573-3254SpringerLink"
        },
        "journalCounter" : {
          "href" : "http://localhost:8082/api/data/journalcounter/20241573-3254SpringerLink"
        }
      }
    }, {
      "month" : 7,
      "year" : 2017,
      "profile" : null,
      "printIssn" : "1869-8182",
      "onlineIssn" : "1869-8182",
      "doi" : "",
      "category" : "",
      "proprietary" : "",
      "abbreviation" : "1869-8182",
      "fullName" : "AMS Review",
      "publisher" : "Springer",
      "platform" : "SpringerLink",
      "type" : "Journal",
      "htmlRequests" : 1,
      "htmlRequestsMobile" : 1,
      "pdfRequests" : 2,
      "pdfRequestsMobile" : 2,
      "psRequests" : 2,
      "psRequestsMobile" : 2,
      "totalRequests" : 3,
      "_links" : {
        "self" : {
          "href" : "http://localhost:8082/api/data/journalcounter/20241869-8182SpringerLink"
        },
        "journalCounter" : {
          "href" : "http://localhost:8082/api/data/journalcounter/20241869-8182SpringerLink"
        }
      }
    }, {
      "month" : 7,
      "year" : 2017,
      "profile" : null,
      "printIssn" : "1863-8163",
      "onlineIssn" : "1863-8163",
      "doi" : "",
      "category" : "",
      "proprietary" : "",
      "abbreviation" : "1863-8163",
      "fullName" : "AStA Wirtschafts- und Sozialstatistisches Archiv",
      "publisher" : "Springer",
      "platform" : "SpringerLink",
      "type" : "Journal",
      "htmlRequests" : 5,
      "htmlRequestsMobile" : 5,
      "pdfRequests" : 3,
      "pdfRequestsMobile" : 3,
      "psRequests" : 3,
      "psRequestsMobile" : 3,
      "totalRequests" : 8,
      "_links" : {
        "self" : {
          "href" : "http://localhost:8082/api/data/journalcounter/20241863-8163SpringerLink"
        },
        "journalCounter" : {
          "href" : "http://localhost:8082/api/data/journalcounter/20241863-8163SpringerLink"
        }
      }
    }, {
      "month" : 7,
      "year" : 2017,
      "profile" : null,
      "printIssn" : "2192-8800",
      "onlineIssn" : "2192-8800",
      "doi" : "",
      "category" : "",
      "proprietary" : "",
      "abbreviation" : "2192-8800",
      "fullName" : "ATZ - Automobiltechnische Zeitschrift",
      "publisher" : "Springer",
      "platform" : "SpringerLink",
      "type" : "Journal",
      "htmlRequests" : 1,
      "htmlRequestsMobile" : 1,
      "pdfRequests" : 4,
      "pdfRequestsMobile" : 4,
      "psRequests" : 4,
      "psRequestsMobile" : 4,
      "totalRequests" : 5,
      "_links" : {
        "self" : {
          "href" : "http://localhost:8082/api/data/journalcounter/20242192-8800SpringerLink"
        },
        "journalCounter" : {
          "href" : "http://localhost:8082/api/data/journalcounter/20242192-8800SpringerLink"
        }
      }
    }, {
      "month" : 7,
      "year" : 2017,
      "profile" : null,
      "printIssn" : "2192-8878",
      "onlineIssn" : "2192-8878",
      "doi" : "",
      "category" : "",
      "proprietary" : "",
      "abbreviation" : "2192-8878",
      "fullName" : "ATZelektronik",
      "publisher" : "Springer",
      "platform" : "SpringerLink",
      "type" : "Journal",
      "htmlRequests" : 3,
      "htmlRequestsMobile" : 3,
      "pdfRequests" : 5,
      "pdfRequestsMobile" : 5,
      "psRequests" : 5,
      "psRequestsMobile" : 5,
      "totalRequests" : 8,
      "_links" : {
        "self" : {
          "href" : "http://localhost:8082/api/data/journalcounter/20242192-8878SpringerLink"
        },
        "journalCounter" : {
          "href" : "http://localhost:8082/api/data/journalcounter/20242192-8878SpringerLink"
        }
      }
    }, {
      "month" : 7,
      "year" : 2017,
      "profile" : null,
      "printIssn" : "2366-0058",
      "onlineIssn" : "2366-0058",
      "doi" : "",
      "category" : "",
      "proprietary" : "",
      "abbreviation" : "2366-0058",
      "fullName" : "Abdominal Radiology",
      "publisher" : "Springer",
      "platform" : "SpringerLink",
      "type" : "Journal",
      "htmlRequests" : 2,
      "htmlRequestsMobile" : 2,
      "pdfRequests" : 1,
      "pdfRequestsMobile" : 1,
      "psRequests" : 1,
      "psRequestsMobile" : 1,
      "totalRequests" : 3,
      "_links" : {
        "self" : {
          "href" : "http://localhost:8082/api/data/journalcounter/20242366-0058SpringerLink"
        },
        "journalCounter" : {
          "href" : "http://localhost:8082/api/data/journalcounter/20242366-0058SpringerLink"
        }
      }
    }, {
      "month" : 7,
      "year" : 2017,
      "profile" : null,
      "printIssn" : "1865-8784",
      "onlineIssn" : "1865-8784",
      "doi" : "",
      "category" : "",
      "proprietary" : "",
      "abbreviation" : "1865-8784",
      "fullName" : "Abhandlungen aus dem Mathematischen Seminar der Universität Hamburg",
      "publisher" : "Springer",
      "platform" : "SpringerLink",
      "type" : "Journal",
      "htmlRequests" : 9,
      "htmlRequestsMobile" : 9,
      "pdfRequests" : 2,
      "pdfRequestsMobile" : 2,
      "psRequests" : 2,
      "psRequestsMobile" : 2,
      "totalRequests" : 11,
      "_links" : {
        "self" : {
          "href" : "http://localhost:8082/api/data/journalcounter/20241865-8784SpringerLink"
        },
        "journalCounter" : {
          "href" : "http://localhost:8082/api/data/journalcounter/20241865-8784SpringerLink"
        }
      }
    }, {
      "month" : 7,
      "year" : 2017,
      "profile" : null,
      "printIssn" : "1432-0517",
      "onlineIssn" : "1432-0517",
      "doi" : "",
      "category" : "",
      "proprietary" : "",
      "abbreviation" : "1432-0517",
      "fullName" : "Accreditation and Quality Assurance",
      "publisher" : "Springer",
      "platform" : "SpringerLink",
      "type" : "Journal",
      "htmlRequests" : 1,
      "htmlRequestsMobile" : 1,
      "pdfRequests" : 0,
      "pdfRequestsMobile" : 0,
      "psRequests" : 0,
      "psRequestsMobile" : 0,
      "totalRequests" : 1,
      "_links" : {
        "self" : {
          "href" : "http://localhost:8082/api/data/journalcounter/20241432-0517SpringerLink"
        },
        "journalCounter" : {
          "href" : "http://localhost:8082/api/data/journalcounter/20241432-0517SpringerLink"
        }
      }
    }, {
      "month" : 7,
      "year" : 2017,
      "profile" : null,
      "printIssn" : "1874-6349",
      "onlineIssn" : "1874-6349",
      "doi" : "",
      "category" : "",
      "proprietary" : "",
      "abbreviation" : "1874-6349",
      "fullName" : "Acta Analytica",
      "publisher" : "Springer",
      "platform" : "SpringerLink",
      "type" : "Journal",
      "htmlRequests" : 1,
      "htmlRequestsMobile" : 1,
      "pdfRequests" : 1,
      "pdfRequestsMobile" : 1,
      "psRequests" : 1,
      "psRequestsMobile" : 1,
      "totalRequests" : 2,
      "_links" : {
        "self" : {
          "href" : "http://localhost:8082/api/data/journalcounter/20241874-6349SpringerLink"
        },
        "journalCounter" : {
          "href" : "http://localhost:8082/api/data/journalcounter/20241874-6349SpringerLink"
        }
      }
    }, {
      "month" : 7,
      "year" : 2017,
      "profile" : null,
      "printIssn" : "1432-5233",
      "onlineIssn" : "1432-5233",
      "doi" : "",
      "category" : "",
      "proprietary" : "",
      "abbreviation" : "1432-5233",
      "fullName" : "Acta Diabetologica",
      "publisher" : "Springer",
      "platform" : "SpringerLink",
      "type" : "Journal",
      "htmlRequests" : 2,
      "htmlRequestsMobile" : 2,
      "pdfRequests" : 2,
      "pdfRequestsMobile" : 2,
      "psRequests" : 2,
      "psRequestsMobile" : 2,
      "totalRequests" : 4,
      "_links" : {
        "self" : {
          "href" : "http://localhost:8082/api/data/journalcounter/20241432-5233SpringerLink"
        },
        "journalCounter" : {
          "href" : "http://localhost:8082/api/data/journalcounter/20241432-5233SpringerLink"
        }
      }
    }, {
      "month" : 7,
      "year" : 2017,
      "profile" : null,
      "printIssn" : "1871-2509",
      "onlineIssn" : "1871-2509",
      "doi" : "",
      "category" : "",
      "proprietary" : "",
      "abbreviation" : "1871-2509",
      "fullName" : "Acta Mathematica",
      "publisher" : "Springer",
      "platform" : "SpringerLink",
      "type" : "Journal",
      "htmlRequests" : 0,
      "htmlRequestsMobile" : 0,
      "pdfRequests" : 1,
      "pdfRequestsMobile" : 1,
      "psRequests" : 1,
      "psRequestsMobile" : 1,
      "totalRequests" : 1,
      "_links" : {
        "self" : {
          "href" : "http://localhost:8082/api/data/journalcounter/20241871-2509SpringerLink"
        },
        "journalCounter" : {
          "href" : "http://localhost:8082/api/data/journalcounter/20241871-2509SpringerLink"
        }
      }
    }, {
      "month" : 7,
      "year" : 2017,
      "profile" : null,
      "printIssn" : "1588-2632",
      "onlineIssn" : "1588-2632",
      "doi" : "",
      "category" : "",
      "proprietary" : "",
      "abbreviation" : "1588-2632",
      "fullName" : "Acta Mathematica Hungarica",
      "publisher" : "Springer",
      "platform" : "SpringerLink",
      "type" : "Journal",
      "htmlRequests" : 0,
      "htmlRequestsMobile" : 0,
      "pdfRequests" : 1,
      "pdfRequestsMobile" : 1,
      "psRequests" : 1,
      "psRequestsMobile" : 1,
      "totalRequests" : 1,
      "_links" : {
        "self" : {
          "href" : "http://localhost:8082/api/data/journalcounter/20241588-2632SpringerLink"
        },
        "journalCounter" : {
          "href" : "http://localhost:8082/api/data/journalcounter/20241588-2632SpringerLink"
        }
      }
    }, {
      "month" : 7,
      "year" : 2017,
      "profile" : null,
      "printIssn" : "1439-7617",
      "onlineIssn" : "1439-7617",
      "doi" : "",
      "category" : "",
      "proprietary" : "",
      "abbreviation" : "1439-7617",
      "fullName" : "Acta Mathematica Sinica, English Series",
      "publisher" : "Springer",
      "platform" : "SpringerLink",
      "type" : "Journal",
      "htmlRequests" : 0,
      "htmlRequestsMobile" : 0,
      "pdfRequests" : 3,
      "pdfRequestsMobile" : 3,
      "psRequests" : 3,
      "psRequestsMobile" : 3,
      "totalRequests" : 3,
      "_links" : {
        "self" : {
          "href" : "http://localhost:8082/api/data/journalcounter/20241439-7617SpringerLink"
        },
        "journalCounter" : {
          "href" : "http://localhost:8082/api/data/journalcounter/20241439-7617SpringerLink"
        }
      }
    }, {
      "month" : 7,
      "year" : 2017,
      "profile" : null,
      "printIssn" : "1619-6937",
      "onlineIssn" : "1619-6937",
      "doi" : "",
      "category" : "",
      "proprietary" : "",
      "abbreviation" : "1619-6937",
      "fullName" : "Acta Mechanica",
      "publisher" : "Springer",
      "platform" : "SpringerLink",
      "type" : "Journal",
      "htmlRequests" : 0,
      "htmlRequestsMobile" : 0,
      "pdfRequests" : 8,
      "pdfRequestsMobile" : 8,
      "psRequests" : 8,
      "psRequestsMobile" : 8,
      "totalRequests" : 8,
      "_links" : {
        "self" : {
          "href" : "http://localhost:8082/api/data/journalcounter/20241619-6937SpringerLink"
        },
        "journalCounter" : {
          "href" : "http://localhost:8082/api/data/journalcounter/20241619-6937SpringerLink"
        }
      }
    }, {
      "month" : 7,
      "year" : 2017,
      "profile" : null,
      "printIssn" : "0942-0940",
      "onlineIssn" : "0942-0940",
      "doi" : "",
      "category" : "",
      "proprietary" : "",
      "abbreviation" : "0942-0940",
      "fullName" : "Acta Neurochirurgica",
      "publisher" : "Springer",
      "platform" : "SpringerLink",
      "type" : "Journal",
      "htmlRequests" : 81,
      "htmlRequestsMobile" : 81,
      "pdfRequests" : 14,
      "pdfRequestsMobile" : 14,
      "psRequests" : 14,
      "psRequestsMobile" : 14,
      "totalRequests" : 95,
      "_links" : {
        "self" : {
          "href" : "http://localhost:8082/api/data/journalcounter/20240942-0940SpringerLink"
        },
        "journalCounter" : {
          "href" : "http://localhost:8082/api/data/journalcounter/20240942-0940SpringerLink"
        }
      }
    }, {
      "month" : 7,
      "year" : 2017,
      "profile" : null,
      "printIssn" : "1432-0533",
      "onlineIssn" : "1432-0533",
      "doi" : "",
      "category" : "",
      "proprietary" : "",
      "abbreviation" : "1432-0533",
      "fullName" : "Acta Neuropathologica",
      "publisher" : "Springer",
      "platform" : "SpringerLink",
      "type" : "Journal",
      "htmlRequests" : 17,
      "htmlRequestsMobile" : 17,
      "pdfRequests" : 10,
      "pdfRequestsMobile" : 10,
      "psRequests" : 10,
      "psRequestsMobile" : 10,
      "totalRequests" : 27,
      "_links" : {
        "self" : {
          "href" : "http://localhost:8082/api/data/journalcounter/20241432-0533SpringerLink"
        },
        "journalCounter" : {
          "href" : "http://localhost:8082/api/data/journalcounter/20241432-0533SpringerLink"
        }
      }
    }, {
      "month" : 7,
      "year" : 2017,
      "profile" : null,
      "printIssn" : "1861-1664",
      "onlineIssn" : "1861-1664",
      "doi" : "",
      "category" : "",
      "proprietary" : "",
      "abbreviation" : "1861-1664",
      "fullName" : "Acta Physiologiae Plantarum",
      "publisher" : "Springer",
      "platform" : "SpringerLink",
      "type" : "Journal",
      "htmlRequests" : 0,
      "htmlRequestsMobile" : 0,
      "pdfRequests" : 1,
      "pdfRequestsMobile" : 1,
      "psRequests" : 1,
      "psRequestsMobile" : 1,
      "totalRequests" : 1,
      "_links" : {
        "self" : {
          "href" : "http://localhost:8082/api/data/journalcounter/20241861-1664SpringerLink"
        },
        "journalCounter" : {
          "href" : "http://localhost:8082/api/data/journalcounter/20241861-1664SpringerLink"
        }
      }
    }, {
      "month" : 7,
      "year" : 2017,
      "profile" : null,
      "printIssn" : "1741-1416",
      "onlineIssn" : "1741-1416",
      "doi" : "",
      "category" : "",
      "proprietary" : "",
      "abbreviation" : "1741-1416",
      "fullName" : "Acta Politica",
      "publisher" : "Springer",
      "platform" : "SpringerLink",
      "type" : "Journal",
      "htmlRequests" : 0,
      "htmlRequestsMobile" : 0,
      "pdfRequests" : 2,
      "pdfRequestsMobile" : 2,
      "psRequests" : 2,
      "psRequestsMobile" : 2,
      "totalRequests" : 2,
      "_links" : {
        "self" : {
          "href" : "http://localhost:8082/api/data/journalcounter/20241741-1416SpringerLink"
        },
        "journalCounter" : {
          "href" : "http://localhost:8082/api/data/journalcounter/20241741-1416SpringerLink"
        }
      }
    }, {
      "month" : 7,
      "year" : 2017,
      "profile" : null,
      "printIssn" : "1573-3289",
      "onlineIssn" : "1573-3289",
      "doi" : "",
      "category" : "",
      "proprietary" : "",
      "abbreviation" : "1573-3289",
      "fullName" : "Administration and Policy in Mental Health and Mental Health Services Research",
      "publisher" : "Springer",
      "platform" : "SpringerLink",
      "type" : "Journal",
      "htmlRequests" : 1,
      "htmlRequestsMobile" : 1,
      "pdfRequests" : 0,
      "pdfRequestsMobile" : 0,
      "psRequests" : 0,
      "psRequestsMobile" : 0,
      "totalRequests" : 1,
      "_links" : {
        "self" : {
          "href" : "http://localhost:8082/api/data/journalcounter/20241573-3289SpringerLink"
        },
        "journalCounter" : {
          "href" : "http://localhost:8082/api/data/journalcounter/20241573-3289SpringerLink"
        }
      }
    }, {
      "month" : 7,
      "year" : 2017,
      "profile" : null,
      "printIssn" : "1572-8757",
      "onlineIssn" : "1572-8757",
      "doi" : "",
      "category" : "",
      "proprietary" : "",
      "abbreviation" : "1572-8757",
      "fullName" : "Adsorption",
      "publisher" : "Springer",
      "platform" : "SpringerLink",
      "type" : "Journal",
      "htmlRequests" : 6,
      "htmlRequestsMobile" : 6,
      "pdfRequests" : 4,
      "pdfRequestsMobile" : 4,
      "psRequests" : 4,
      "psRequestsMobile" : 4,
      "totalRequests" : 10,
      "_links" : {
        "self" : {
          "href" : "http://localhost:8082/api/data/journalcounter/20241572-8757SpringerLink"
        },
        "journalCounter" : {
          "href" : "http://localhost:8082/api/data/journalcounter/20241572-8757SpringerLink"
        }
      }
    } ]
  },
  "_links" : {
    "first" : {
      "href" : "http://localhost:8082/api/data/journalcounter?page=0&size=20"
    },
    "self" : {
      "href" : "http://localhost:8082/api/data/journalcounter{?page,size,sort}",
      "templated" : true
    },
    "next" : {
      "href" : "http://localhost:8082/api/data/journalcounter?page=1&size=20"
    },
    "last" : {
      "href" : "http://localhost:8082/api/data/journalcounter?page=426&size=20"
    },
    "profile" : {
      "href" : "http://localhost:8082/api/data/profile/journalcounter"
    },
    "search" : {
      "href" : "http://localhost:8082/api/data/journalcounter/search"
    }
  },
  "page" : {
    "size" : 20,
    "totalElements" : 8522,
    "totalPages" : 427,
    "number" : 0
  }
}